{
  "key": "GDPR-21",
  "aggregateprogress": {
    "progress": 0,
    "total": 0
  },
  "attachment": [
    {
      "self": "https://gdpr-patterns.atlassian.net/rest/api/2/attachment/10017",
      "id": "10017",
      "filename": "Marketing.png",
      "author": {
        "self": "https://gdpr-patterns.atlassian.net/rest/api/2/user?username=barbara.prevel",
        "name": "barbara.prevel",
        "key": "barbara.prevel",
        "accountId": "5b0fd0163876ac401f7795c0",
        "emailAddress": "barbara.prevel@photobox.com",
        "avatarUrls": {
          "48x48": "https://avatar-cdn.atlassian.com/44ae4d3dcf0d07a9e7a90688405a9db4?s=48&d=https%3A%2F%2Fsecure.gravatar.com%2Favatar%2F44ae4d3dcf0d07a9e7a90688405a9db4%3Fd%3Dmm%26s%3D48%26noRedirect%3Dtrue",
          "24x24": "https://avatar-cdn.atlassian.com/44ae4d3dcf0d07a9e7a90688405a9db4?s=24&d=https%3A%2F%2Fsecure.gravatar.com%2Favatar%2F44ae4d3dcf0d07a9e7a90688405a9db4%3Fd%3Dmm%26s%3D24%26noRedirect%3Dtrue",
          "16x16": "https://avatar-cdn.atlassian.com/44ae4d3dcf0d07a9e7a90688405a9db4?s=16&d=https%3A%2F%2Fsecure.gravatar.com%2Favatar%2F44ae4d3dcf0d07a9e7a90688405a9db4%3Fd%3Dmm%26s%3D16%26noRedirect%3Dtrue",
          "32x32": "https://avatar-cdn.atlassian.com/44ae4d3dcf0d07a9e7a90688405a9db4?s=32&d=https%3A%2F%2Fsecure.gravatar.com%2Favatar%2F44ae4d3dcf0d07a9e7a90688405a9db4%3Fd%3Dmm%26s%3D32%26noRedirect%3Dtrue"
        },
        "displayName": "Barbara Prevel",
        "active": true,
        "timeZone": "Europe/London"
      },
      "created": "2018-06-01T15:03:22.645+0100",
      "size": 96716,
      "mimeType": "image/png",
      "content": "https://gdpr-patterns.atlassian.net/secure/attachment/10017/Marketing.png",
      "thumbnail": "https://gdpr-patterns.atlassian.net/secure/thumbnail/10017/Marketing.png"
    }
  ],
  "comment": {
    "comments": [],
    "maxResults": 0,
    "total": 0,
    "startAt": 0
  },
  "components": [],
  "created": "2018-06-01T15:03:59.984+0100",
  "creator": {
    "self": "https://gdpr-patterns.atlassian.net/rest/api/2/user?username=barbara.prevel",
    "name": "barbara.prevel",
    "key": "barbara.prevel",
    "accountId": "5b0fd0163876ac401f7795c0",
    "emailAddress": "barbara.prevel@photobox.com",
    "avatarUrls": {
      "48x48": "https://avatar-cdn.atlassian.com/44ae4d3dcf0d07a9e7a90688405a9db4?s=48&d=https%3A%2F%2Fsecure.gravatar.com%2Favatar%2F44ae4d3dcf0d07a9e7a90688405a9db4%3Fd%3Dmm%26s%3D48%26noRedirect%3Dtrue",
      "24x24": "https://avatar-cdn.atlassian.com/44ae4d3dcf0d07a9e7a90688405a9db4?s=24&d=https%3A%2F%2Fsecure.gravatar.com%2Favatar%2F44ae4d3dcf0d07a9e7a90688405a9db4%3Fd%3Dmm%26s%3D24%26noRedirect%3Dtrue",
      "16x16": "https://avatar-cdn.atlassian.com/44ae4d3dcf0d07a9e7a90688405a9db4?s=16&d=https%3A%2F%2Fsecure.gravatar.com%2Favatar%2F44ae4d3dcf0d07a9e7a90688405a9db4%3Fd%3Dmm%26s%3D16%26noRedirect%3Dtrue",
      "32x32": "https://avatar-cdn.atlassian.com/44ae4d3dcf0d07a9e7a90688405a9db4?s=32&d=https%3A%2F%2Fsecure.gravatar.com%2Favatar%2F44ae4d3dcf0d07a9e7a90688405a9db4%3Fd%3Dmm%26s%3D32%26noRedirect%3Dtrue"
    },
    "displayName": "Barbara Prevel",
    "active": true,
    "timeZone": "Europe/London"
  },
  "customfield_10000": "{}",
  "customfield_10010": [],
  "customfield_10011": "0|i000pr:",
  "description": "This data journeys represents the Marketing and Social Media process for Marketing business function.\r\n\r\n*Dot diagram source*\r\n{code}digraph G {\r\n    label = \"CRM, Marketing and Social Media\"\r\n\r\nPBDW [label=\"Production Analytics Environment\r\n- Data Warehouse (AWS)\", color=orange]\r\nADW [label=\"Local Analytics Environment for Analytics team\r\n- Data Warehouse (AWS)\", color=orange]\r\nQBI [label=\"BI reporting\"]\r\nMDS [label=\"Multiple Data Sources \r\n(Customers and CSRs\"]\r\nPBDW -> QBI [label=\"Reports\"]\r\nPBDW -> ADW [label=\"Weekly DB copy (DW \r\nimage using Amazon Service)\"]\r\nDA [label=\"Data Analytics\r\n(Data Analytics Studio Solution and Python)\"]\r\n\r\nADW -> DA [label=\"extract via SQL\"]\r\nDA -> Acq\r\n\r\nAS32 [label=\"Amazon S3 - \r\nAnalytics\", color=orange]\r\nMDS -> AS32\r\nACRM [label=\"Adobe Campaign \r\n(CRM) \r\nMS SQL DB\", color=orange]\r\nAcq [label=\"Acquisition: Upload to Ads sites\", color=orange]\r\nSMA [label=\"Social Media \r\n(Organic Social Media team)\"]\r\n\r\n\r\nACRM -> AS32 [label=\"Daily ETL Job\"]\r\nAS32 -> ACRM [label=\"Daily 2 ETL Job\"]\r\nAcq -> SMA [label=\"Customer Access \r\nvia social sites\"]\r\nAS32 -> PBDW\r\n}\r\n{code}",
  "fixVersions": [],
  "issuelinks": [
    {
      "id": "10134",
      "self": "https://gdpr-patterns.atlassian.net/rest/api/2/issueLink/10134",
      "type": {
        "id": "10203",
        "name": "Data touches",
        "inward": "System used for",
        "outward": "Data touches",
        "self": "https://gdpr-patterns.atlassian.net/rest/api/2/issueLinkType/10203"
      },
      "outwardIssue": {
        "id": "10122",
        "key": "GDPR-22",
        "self": "https://gdpr-patterns.atlassian.net/rest/api/2/issue/10122",
        "fields": {
          "summary": "Amazon S3 - Analytics",
          "status": {
            "self": "https://gdpr-patterns.atlassian.net/rest/api/2/status/10009",
            "description": "",
            "iconUrl": "https://gdpr-patterns.atlassian.net/",
            "name": "To Do",
            "id": "10009",
            "statusCategory": {
              "self": "https://gdpr-patterns.atlassian.net/rest/api/2/statuscategory/2",
              "id": 2,
              "key": "new",
              "colorName": "blue-gray",
              "name": "To Do"
            }
          },
          "priority": {
            "self": "https://gdpr-patterns.atlassian.net/rest/api/2/priority/3",
            "iconUrl": "https://gdpr-patterns.atlassian.net/images/icons/priorities/medium.svg",
            "name": "Medium",
            "id": "3"
          },
          "issuetype": {
            "self": "https://gdpr-patterns.atlassian.net/rest/api/2/issuetype/10024",
            "id": "10024",
            "description": "",
            "iconUrl": "https://gdpr-patterns.atlassian.net/secure/viewavatar?size=xsmall&avatarId=10516&avatarType=issuetype",
            "name": "IT System",
            "subtask": false,
            "avatarId": 10516
          }
        }
      }
    },
    {
      "id": "10135",
      "self": "https://gdpr-patterns.atlassian.net/rest/api/2/issueLink/10135",
      "type": {
        "id": "10203",
        "name": "Data touches",
        "inward": "System used for",
        "outward": "Data touches",
        "self": "https://gdpr-patterns.atlassian.net/rest/api/2/issueLinkType/10203"
      },
      "outwardIssue": {
        "id": "10123",
        "key": "GDPR-23",
        "self": "https://gdpr-patterns.atlassian.net/rest/api/2/issue/10123",
        "fields": {
          "summary": "Adobe Campaign (CRM) MS SQL DB ",
          "status": {
            "self": "https://gdpr-patterns.atlassian.net/rest/api/2/status/10009",
            "description": "",
            "iconUrl": "https://gdpr-patterns.atlassian.net/",
            "name": "To Do",
            "id": "10009",
            "statusCategory": {
              "self": "https://gdpr-patterns.atlassian.net/rest/api/2/statuscategory/2",
              "id": 2,
              "key": "new",
              "colorName": "blue-gray",
              "name": "To Do"
            }
          },
          "priority": {
            "self": "https://gdpr-patterns.atlassian.net/rest/api/2/priority/3",
            "iconUrl": "https://gdpr-patterns.atlassian.net/images/icons/priorities/medium.svg",
            "name": "Medium",
            "id": "3"
          },
          "issuetype": {
            "self": "https://gdpr-patterns.atlassian.net/rest/api/2/issuetype/10024",
            "id": "10024",
            "description": "",
            "iconUrl": "https://gdpr-patterns.atlassian.net/secure/viewavatar?size=xsmall&avatarId=10516&avatarType=issuetype",
            "name": "IT System",
            "subtask": false,
            "avatarId": 10516
          }
        }
      }
    },
    {
      "id": "10137",
      "self": "https://gdpr-patterns.atlassian.net/rest/api/2/issueLink/10137",
      "type": {
        "id": "10203",
        "name": "Data touches",
        "inward": "System used for",
        "outward": "Data touches",
        "self": "https://gdpr-patterns.atlassian.net/rest/api/2/issueLinkType/10203"
      },
      "outwardIssue": {
        "id": "10124",
        "key": "GDPR-24",
        "self": "https://gdpr-patterns.atlassian.net/rest/api/2/issue/10124",
        "fields": {
          "summary": "Production Analytics Environment - Data Warehouse (AWS)",
          "status": {
            "self": "https://gdpr-patterns.atlassian.net/rest/api/2/status/10009",
            "description": "",
            "iconUrl": "https://gdpr-patterns.atlassian.net/",
            "name": "To Do",
            "id": "10009",
            "statusCategory": {
              "self": "https://gdpr-patterns.atlassian.net/rest/api/2/statuscategory/2",
              "id": 2,
              "key": "new",
              "colorName": "blue-gray",
              "name": "To Do"
            }
          },
          "priority": {
            "self": "https://gdpr-patterns.atlassian.net/rest/api/2/priority/3",
            "iconUrl": "https://gdpr-patterns.atlassian.net/images/icons/priorities/medium.svg",
            "name": "Medium",
            "id": "3"
          },
          "issuetype": {
            "self": "https://gdpr-patterns.atlassian.net/rest/api/2/issuetype/10024",
            "id": "10024",
            "description": "",
            "iconUrl": "https://gdpr-patterns.atlassian.net/secure/viewavatar?size=xsmall&avatarId=10516&avatarType=issuetype",
            "name": "IT System",
            "subtask": false,
            "avatarId": 10516
          }
        }
      }
    },
    {
      "id": "10138",
      "self": "https://gdpr-patterns.atlassian.net/rest/api/2/issueLink/10138",
      "type": {
        "id": "10203",
        "name": "Data touches",
        "inward": "System used for",
        "outward": "Data touches",
        "self": "https://gdpr-patterns.atlassian.net/rest/api/2/issueLinkType/10203"
      },
      "outwardIssue": {
        "id": "10125",
        "key": "GDPR-25",
        "self": "https://gdpr-patterns.atlassian.net/rest/api/2/issue/10125",
        "fields": {
          "summary": "Local Analytics Environment for Analytics team - Data Warehouse (AWS)",
          "status": {
            "self": "https://gdpr-patterns.atlassian.net/rest/api/2/status/10009",
            "description": "",
            "iconUrl": "https://gdpr-patterns.atlassian.net/",
            "name": "To Do",
            "id": "10009",
            "statusCategory": {
              "self": "https://gdpr-patterns.atlassian.net/rest/api/2/statuscategory/2",
              "id": 2,
              "key": "new",
              "colorName": "blue-gray",
              "name": "To Do"
            }
          },
          "priority": {
            "self": "https://gdpr-patterns.atlassian.net/rest/api/2/priority/3",
            "iconUrl": "https://gdpr-patterns.atlassian.net/images/icons/priorities/medium.svg",
            "name": "Medium",
            "id": "3"
          },
          "issuetype": {
            "self": "https://gdpr-patterns.atlassian.net/rest/api/2/issuetype/10024",
            "id": "10024",
            "description": "",
            "iconUrl": "https://gdpr-patterns.atlassian.net/secure/viewavatar?size=xsmall&avatarId=10516&avatarType=issuetype",
            "name": "IT System",
            "subtask": false,
            "avatarId": 10516
          }
        }
      }
    },
    {
      "id": "10139",
      "self": "https://gdpr-patterns.atlassian.net/rest/api/2/issueLink/10139",
      "type": {
        "id": "10203",
        "name": "Data touches",
        "inward": "System used for",
        "outward": "Data touches",
        "self": "https://gdpr-patterns.atlassian.net/rest/api/2/issueLinkType/10203"
      },
      "outwardIssue": {
        "id": "10126",
        "key": "GDPR-26",
        "self": "https://gdpr-patterns.atlassian.net/rest/api/2/issue/10126",
        "fields": {
          "summary": "Data Analytics (Data Analytics Studio Solution And Python)",
          "status": {
            "self": "https://gdpr-patterns.atlassian.net/rest/api/2/status/10009",
            "description": "",
            "iconUrl": "https://gdpr-patterns.atlassian.net/",
            "name": "To Do",
            "id": "10009",
            "statusCategory": {
              "self": "https://gdpr-patterns.atlassian.net/rest/api/2/statuscategory/2",
              "id": 2,
              "key": "new",
              "colorName": "blue-gray",
              "name": "To Do"
            }
          },
          "priority": {
            "self": "https://gdpr-patterns.atlassian.net/rest/api/2/priority/3",
            "iconUrl": "https://gdpr-patterns.atlassian.net/images/icons/priorities/medium.svg",
            "name": "Medium",
            "id": "3"
          },
          "issuetype": {
            "self": "https://gdpr-patterns.atlassian.net/rest/api/2/issuetype/10024",
            "id": "10024",
            "description": "",
            "iconUrl": "https://gdpr-patterns.atlassian.net/secure/viewavatar?size=xsmall&avatarId=10516&avatarType=issuetype",
            "name": "IT System",
            "subtask": false,
            "avatarId": 10516
          }
        }
      }
    },
    {
      "id": "10140",
      "self": "https://gdpr-patterns.atlassian.net/rest/api/2/issueLink/10140",
      "type": {
        "id": "10203",
        "name": "Data touches",
        "inward": "System used for",
        "outward": "Data touches",
        "self": "https://gdpr-patterns.atlassian.net/rest/api/2/issueLinkType/10203"
      },
      "outwardIssue": {
        "id": "10127",
        "key": "GDPR-27",
        "self": "https://gdpr-patterns.atlassian.net/rest/api/2/issue/10127",
        "fields": {
          "summary": "Acquisition: Upload to Ads sites",
          "status": {
            "self": "https://gdpr-patterns.atlassian.net/rest/api/2/status/10009",
            "description": "",
            "iconUrl": "https://gdpr-patterns.atlassian.net/",
            "name": "To Do",
            "id": "10009",
            "statusCategory": {
              "self": "https://gdpr-patterns.atlassian.net/rest/api/2/statuscategory/2",
              "id": 2,
              "key": "new",
              "colorName": "blue-gray",
              "name": "To Do"
            }
          },
          "priority": {
            "self": "https://gdpr-patterns.atlassian.net/rest/api/2/priority/3",
            "iconUrl": "https://gdpr-patterns.atlassian.net/images/icons/priorities/medium.svg",
            "name": "Medium",
            "id": "3"
          },
          "issuetype": {
            "self": "https://gdpr-patterns.atlassian.net/rest/api/2/issuetype/10024",
            "id": "10024",
            "description": "",
            "iconUrl": "https://gdpr-patterns.atlassian.net/secure/viewavatar?size=xsmall&avatarId=10516&avatarType=issuetype",
            "name": "IT System",
            "subtask": false,
            "avatarId": 10516
          }
        }
      }
    },
    {
      "id": "10141",
      "self": "https://gdpr-patterns.atlassian.net/rest/api/2/issueLink/10141",
      "type": {
        "id": "10203",
        "name": "Data touches",
        "inward": "System used for",
        "outward": "Data touches",
        "self": "https://gdpr-patterns.atlassian.net/rest/api/2/issueLinkType/10203"
      },
      "outwardIssue": {
        "id": "10128",
        "key": "GDPR-28",
        "self": "https://gdpr-patterns.atlassian.net/rest/api/2/issue/10128",
        "fields": {
          "summary": "Social Media (Organic Social Media Team)",
          "status": {
            "self": "https://gdpr-patterns.atlassian.net/rest/api/2/status/10009",
            "description": "",
            "iconUrl": "https://gdpr-patterns.atlassian.net/",
            "name": "To Do",
            "id": "10009",
            "statusCategory": {
              "self": "https://gdpr-patterns.atlassian.net/rest/api/2/statuscategory/2",
              "id": 2,
              "key": "new",
              "colorName": "blue-gray",
              "name": "To Do"
            }
          },
          "priority": {
            "self": "https://gdpr-patterns.atlassian.net/rest/api/2/priority/3",
            "iconUrl": "https://gdpr-patterns.atlassian.net/images/icons/priorities/medium.svg",
            "name": "Medium",
            "id": "3"
          },
          "issuetype": {
            "self": "https://gdpr-patterns.atlassian.net/rest/api/2/issuetype/10024",
            "id": "10024",
            "description": "",
            "iconUrl": "https://gdpr-patterns.atlassian.net/secure/viewavatar?size=xsmall&avatarId=10516&avatarType=issuetype",
            "name": "IT System",
            "subtask": false,
            "avatarId": 10516
          }
        }
      }
    }
  ],
  "issuetype": {
    "self": "https://gdpr-patterns.atlassian.net/rest/api/2/issuetype/10023",
    "id": "10023",
    "description": "",
    "iconUrl": "https://gdpr-patterns.atlassian.net/secure/viewavatar?size=xsmall&avatarId=10321&avatarType=issuetype",
    "name": "Data Journey",
    "subtask": false,
    "avatarId": 10321
  },
  "labels": [],
  "priority": {
    "self": "https://gdpr-patterns.atlassian.net/rest/api/2/priority/3",
    "iconUrl": "https://gdpr-patterns.atlassian.net/images/icons/priorities/medium.svg",
    "name": "Medium",
    "id": "3"
  },
  "progress": {
    "progress": 0,
    "total": 0
  },
  "project": {
    "self": "https://gdpr-patterns.atlassian.net/rest/api/2/project/10006",
    "id": "10006",
    "key": "GDPR",
    "name": "GDPR",
    "projectTypeKey": "software",
    "avatarUrls": {
      "48x48": "https://gdpr-patterns.atlassian.net/secure/projectavatar?avatarId=10324",
      "24x24": "https://gdpr-patterns.atlassian.net/secure/projectavatar?size=small&avatarId=10324",
      "16x16": "https://gdpr-patterns.atlassian.net/secure/projectavatar?size=xsmall&avatarId=10324",
      "32x32": "https://gdpr-patterns.atlassian.net/secure/projectavatar?size=medium&avatarId=10324"
    }
  },
  "reporter": {
    "self": "https://gdpr-patterns.atlassian.net/rest/api/2/user?username=barbara.prevel",
    "name": "barbara.prevel",
    "key": "barbara.prevel",
    "accountId": "5b0fd0163876ac401f7795c0",
    "emailAddress": "barbara.prevel@photobox.com",
    "avatarUrls": {
      "48x48": "https://avatar-cdn.atlassian.com/44ae4d3dcf0d07a9e7a90688405a9db4?s=48&d=https%3A%2F%2Fsecure.gravatar.com%2Favatar%2F44ae4d3dcf0d07a9e7a90688405a9db4%3Fd%3Dmm%26s%3D48%26noRedirect%3Dtrue",
      "24x24": "https://avatar-cdn.atlassian.com/44ae4d3dcf0d07a9e7a90688405a9db4?s=24&d=https%3A%2F%2Fsecure.gravatar.com%2Favatar%2F44ae4d3dcf0d07a9e7a90688405a9db4%3Fd%3Dmm%26s%3D24%26noRedirect%3Dtrue",
      "16x16": "https://avatar-cdn.atlassian.com/44ae4d3dcf0d07a9e7a90688405a9db4?s=16&d=https%3A%2F%2Fsecure.gravatar.com%2Favatar%2F44ae4d3dcf0d07a9e7a90688405a9db4%3Fd%3Dmm%26s%3D16%26noRedirect%3Dtrue",
      "32x32": "https://avatar-cdn.atlassian.com/44ae4d3dcf0d07a9e7a90688405a9db4?s=32&d=https%3A%2F%2Fsecure.gravatar.com%2Favatar%2F44ae4d3dcf0d07a9e7a90688405a9db4%3Fd%3Dmm%26s%3D32%26noRedirect%3Dtrue"
    },
    "displayName": "Barbara Prevel",
    "active": true,
    "timeZone": "Europe/London"
  },
  "status": {
    "self": "https://gdpr-patterns.atlassian.net/rest/api/2/status/10009",
    "description": "",
    "iconUrl": "https://gdpr-patterns.atlassian.net/",
    "name": "To Do",
    "id": "10009",
    "statusCategory": {
      "self": "https://gdpr-patterns.atlassian.net/rest/api/2/statuscategory/2",
      "id": 2,
      "key": "new",
      "colorName": "blue-gray",
      "name": "To Do"
    }
  },
  "subtasks": [],
  "summary": "Marketing, CRM and Social Media (Data Journey)",
  "timetracking": {},
  "updated": "2018-06-04T02:06:03.731+0100",
  "versions": [],
  "votes": {
    "self": "https://gdpr-patterns.atlassian.net/rest/api/2/issue/GDPR-21/votes",
    "votes": 0,
    "hasVoted": false
  },
  "watches": {
    "self": "https://gdpr-patterns.atlassian.net/rest/api/2/issue/GDPR-21/watchers",
    "watchCount": 1,
    "isWatching": false
  },
  "worklog": {
    "startAt": 0,
    "maxResults": 20,
    "total": 0,
    "worklogs": []
  },
  "workratio": -1
}