{
  "key": "RISK-11",
  "aggregateprogress": {
    "progress": 0,
    "total": 0
  },
  "attachment": [],
  "comment": {
    "comments": [],
    "maxResults": 0,
    "total": 0,
    "startAt": 0
  },
  "components": [],
  "created": "2018-06-01T10:37:59.078+0100",
  "creator": {
    "self": "https://gdpr-patterns.atlassian.net/rest/api/2/user?username=david.cervigni",
    "name": "david.cervigni",
    "key": "david.cervigni",
    "accountId": "5b0d19d3ce088c5b9c430f99",
    "emailAddress": "david.cervigni@photobox.com",
    "avatarUrls": {
      "48x48": "https://avatar-cdn.atlassian.com/b76108d3a8912c618da576e75dd9ff1e?s=48&d=https%3A%2F%2Fsecure.gravatar.com%2Favatar%2Fb76108d3a8912c618da576e75dd9ff1e%3Fd%3Dmm%26s%3D48%26noRedirect%3Dtrue",
      "24x24": "https://avatar-cdn.atlassian.com/b76108d3a8912c618da576e75dd9ff1e?s=24&d=https%3A%2F%2Fsecure.gravatar.com%2Favatar%2Fb76108d3a8912c618da576e75dd9ff1e%3Fd%3Dmm%26s%3D24%26noRedirect%3Dtrue",
      "16x16": "https://avatar-cdn.atlassian.com/b76108d3a8912c618da576e75dd9ff1e?s=16&d=https%3A%2F%2Fsecure.gravatar.com%2Favatar%2Fb76108d3a8912c618da576e75dd9ff1e%3Fd%3Dmm%26s%3D16%26noRedirect%3Dtrue",
      "32x32": "https://avatar-cdn.atlassian.com/b76108d3a8912c618da576e75dd9ff1e?s=32&d=https%3A%2F%2Fsecure.gravatar.com%2Favatar%2Fb76108d3a8912c618da576e75dd9ff1e%3Fd%3Dmm%26s%3D32%26noRedirect%3Dtrue"
    },
    "displayName": "David Cervigni",
    "active": true,
    "timeZone": "Europe/London"
  },
  "customfield_10000": "{}",
  "customfield_10010": [],
  "customfield_10011": "0|i000fb:",
  "fixVersions": [],
  "issuelinks": [
    {
      "id": "10041",
      "self": "https://gdpr-patterns.atlassian.net/rest/api/2/issueLink/10041",
      "type": {
        "id": "10202",
        "name": "Has RISK",
        "inward": "RISK affects",
        "outward": "Has RISK",
        "self": "https://gdpr-patterns.atlassian.net/rest/api/2/issueLinkType/10202"
      },
      "inwardIssue": {
        "id": "10073",
        "key": "VULN-12",
        "self": "https://gdpr-patterns.atlassian.net/rest/api/2/issue/10073",
        "fields": {
          "summary": "No periodic review of users who access the data residing within the third party environment for Google Docs.",
          "status": {
            "self": "https://gdpr-patterns.atlassian.net/rest/api/2/status/10003",
            "description": "",
            "iconUrl": "https://gdpr-patterns.atlassian.net/",
            "name": "To Do",
            "id": "10003",
            "statusCategory": {
              "self": "https://gdpr-patterns.atlassian.net/rest/api/2/statuscategory/2",
              "id": 2,
              "key": "new",
              "colorName": "blue-gray",
              "name": "To Do"
            }
          },
          "priority": {
            "self": "https://gdpr-patterns.atlassian.net/rest/api/2/priority/3",
            "iconUrl": "https://gdpr-patterns.atlassian.net/images/icons/priorities/medium.svg",
            "name": "Medium",
            "id": "3"
          },
          "issuetype": {
            "self": "https://gdpr-patterns.atlassian.net/rest/api/2/issuetype/10006",
            "id": "10006",
            "description": "",
            "iconUrl": "https://gdpr-patterns.atlassian.net/secure/viewavatar?size=xsmall&avatarId=10321&avatarType=issuetype",
            "name": "Vulnerability",
            "subtask": false,
            "avatarId": 10321
          }
        }
      }
    }
  ],
  "issuetype": {
    "self": "https://gdpr-patterns.atlassian.net/rest/api/2/issuetype/10009",
    "id": "10009",
    "description": "A Risk is the potential or actual consequence of a known vulnerability.",
    "iconUrl": "https://gdpr-patterns.atlassian.net/secure/viewavatar?size=xsmall&avatarId=10304&avatarType=issuetype",
    "name": "RISK",
    "subtask": false,
    "avatarId": 10304
  },
  "labels": [],
  "priority": {
    "self": "https://gdpr-patterns.atlassian.net/rest/api/2/priority/3",
    "iconUrl": "https://gdpr-patterns.atlassian.net/images/icons/priorities/medium.svg",
    "name": "Medium",
    "id": "3"
  },
  "progress": {
    "progress": 0,
    "total": 0
  },
  "project": {
    "self": "https://gdpr-patterns.atlassian.net/rest/api/2/project/10001",
    "id": "10001",
    "key": "RISK",
    "name": "RISK",
    "projectTypeKey": "software",
    "avatarUrls": {
      "48x48": "https://gdpr-patterns.atlassian.net/secure/projectavatar?avatarId=10324",
      "24x24": "https://gdpr-patterns.atlassian.net/secure/projectavatar?size=small&avatarId=10324",
      "16x16": "https://gdpr-patterns.atlassian.net/secure/projectavatar?size=xsmall&avatarId=10324",
      "32x32": "https://gdpr-patterns.atlassian.net/secure/projectavatar?size=medium&avatarId=10324"
    }
  },
  "reporter": {
    "self": "https://gdpr-patterns.atlassian.net/rest/api/2/user?username=david.cervigni",
    "name": "david.cervigni",
    "key": "david.cervigni",
    "accountId": "5b0d19d3ce088c5b9c430f99",
    "emailAddress": "david.cervigni@photobox.com",
    "avatarUrls": {
      "48x48": "https://avatar-cdn.atlassian.com/b76108d3a8912c618da576e75dd9ff1e?s=48&d=https%3A%2F%2Fsecure.gravatar.com%2Favatar%2Fb76108d3a8912c618da576e75dd9ff1e%3Fd%3Dmm%26s%3D48%26noRedirect%3Dtrue",
      "24x24": "https://avatar-cdn.atlassian.com/b76108d3a8912c618da576e75dd9ff1e?s=24&d=https%3A%2F%2Fsecure.gravatar.com%2Favatar%2Fb76108d3a8912c618da576e75dd9ff1e%3Fd%3Dmm%26s%3D24%26noRedirect%3Dtrue",
      "16x16": "https://avatar-cdn.atlassian.com/b76108d3a8912c618da576e75dd9ff1e?s=16&d=https%3A%2F%2Fsecure.gravatar.com%2Favatar%2Fb76108d3a8912c618da576e75dd9ff1e%3Fd%3Dmm%26s%3D16%26noRedirect%3Dtrue",
      "32x32": "https://avatar-cdn.atlassian.com/b76108d3a8912c618da576e75dd9ff1e?s=32&d=https%3A%2F%2Fsecure.gravatar.com%2Favatar%2Fb76108d3a8912c618da576e75dd9ff1e%3Fd%3Dmm%26s%3D32%26noRedirect%3Dtrue"
    },
    "displayName": "David Cervigni",
    "active": true,
    "timeZone": "Europe/London"
  },
  "status": {
    "self": "https://gdpr-patterns.atlassian.net/rest/api/2/status/10000",
    "description": "",
    "iconUrl": "https://gdpr-patterns.atlassian.net/",
    "name": "To Do",
    "id": "10000",
    "statusCategory": {
      "self": "https://gdpr-patterns.atlassian.net/rest/api/2/statuscategory/2",
      "id": 2,
      "key": "new",
      "colorName": "blue-gray",
      "name": "To Do"
    }
  },
  "subtasks": [],
  "summary": "Information Disclosure on Google Docs",
  "timetracking": {},
  "updated": "2018-06-01T10:50:13.268+0100",
  "versions": [],
  "votes": {
    "self": "https://gdpr-patterns.atlassian.net/rest/api/2/issue/RISK-11/votes",
    "votes": 0,
    "hasVoted": false
  },
  "watches": {
    "self": "https://gdpr-patterns.atlassian.net/rest/api/2/issue/RISK-11/watchers",
    "watchCount": 1,
    "isWatching": false
  },
  "worklog": {
    "startAt": 0,
    "maxResults": 20,
    "total": 0,
    "worklogs": []
  },
  "workratio": -1
}