{
  "key": "TM-1",
  "aggregateprogress": {
    "progress": 0,
    "total": 0
  },
  "attachment": [],
  "comment": {
    "comments": [],
    "maxResults": 0,
    "total": 0,
    "startAt": 0
  },
  "components": [],
  "created": "2018-05-31T23:05:49.912+0100",
  "creator": {
    "self": "https://gdpr-patterns.atlassian.net/rest/api/2/user?username=admin",
    "name": "admin",
    "key": "admin",
    "accountId": "5af6dc1982ddd25cccb8ba36",
    "emailAddress": "soti.sima@photobox.com",
    "avatarUrls": {
      "48x48": "https://avatar-cdn.atlassian.com/dbe69cb11e3d694a212611d29fbe842b?s=48&d=https%3A%2F%2Fsecure.gravatar.com%2Favatar%2Fdbe69cb11e3d694a212611d29fbe842b%3Fd%3Dmm%26s%3D48%26noRedirect%3Dtrue",
      "24x24": "https://avatar-cdn.atlassian.com/dbe69cb11e3d694a212611d29fbe842b?s=24&d=https%3A%2F%2Fsecure.gravatar.com%2Favatar%2Fdbe69cb11e3d694a212611d29fbe842b%3Fd%3Dmm%26s%3D24%26noRedirect%3Dtrue",
      "16x16": "https://avatar-cdn.atlassian.com/dbe69cb11e3d694a212611d29fbe842b?s=16&d=https%3A%2F%2Fsecure.gravatar.com%2Favatar%2Fdbe69cb11e3d694a212611d29fbe842b%3Fd%3Dmm%26s%3D16%26noRedirect%3Dtrue",
      "32x32": "https://avatar-cdn.atlassian.com/dbe69cb11e3d694a212611d29fbe842b?s=32&d=https%3A%2F%2Fsecure.gravatar.com%2Favatar%2Fdbe69cb11e3d694a212611d29fbe842b%3Fd%3Dmm%26s%3D32%26noRedirect%3Dtrue"
    },
    "displayName": "Sotiraki Sima",
    "active": true,
    "timeZone": "Europe/London"
  },
  "customfield_10000": "{}",
  "customfield_10010": [],
  "customfield_10011": "0|i000d3:",
  "fixVersions": [],
  "issuelinks": [],
  "issuetype": {
    "self": "https://gdpr-patterns.atlassian.net/rest/api/2/issuetype/10004",
    "id": "10004",
    "description": "A problem which impairs or prevents the functions of the product.",
    "iconUrl": "https://gdpr-patterns.atlassian.net/secure/viewavatar?size=xsmall&avatarId=10303&avatarType=issuetype",
    "name": "Bug",
    "subtask": false,
    "avatarId": 10303
  },
  "labels": [],
  "lastViewed": "2018-05-31T23:06:04.769+0100",
  "priority": {
    "self": "https://gdpr-patterns.atlassian.net/rest/api/2/priority/3",
    "iconUrl": "https://gdpr-patterns.atlassian.net/images/icons/priorities/medium.svg",
    "name": "Medium",
    "id": "3"
  },
  "progress": {
    "progress": 0,
    "total": 0
  },
  "project": {
    "self": "https://gdpr-patterns.atlassian.net/rest/api/2/project/10007",
    "id": "10007",
    "key": "TM",
    "name": "TM",
    "projectTypeKey": "software",
    "avatarUrls": {
      "48x48": "https://gdpr-patterns.atlassian.net/secure/projectavatar?avatarId=10324",
      "24x24": "https://gdpr-patterns.atlassian.net/secure/projectavatar?size=small&avatarId=10324",
      "16x16": "https://gdpr-patterns.atlassian.net/secure/projectavatar?size=xsmall&avatarId=10324",
      "32x32": "https://gdpr-patterns.atlassian.net/secure/projectavatar?size=medium&avatarId=10324"
    }
  },
  "reporter": {
    "self": "https://gdpr-patterns.atlassian.net/rest/api/2/user?username=admin",
    "name": "admin",
    "key": "admin",
    "accountId": "5af6dc1982ddd25cccb8ba36",
    "emailAddress": "soti.sima@photobox.com",
    "avatarUrls": {
      "48x48": "https://avatar-cdn.atlassian.com/dbe69cb11e3d694a212611d29fbe842b?s=48&d=https%3A%2F%2Fsecure.gravatar.com%2Favatar%2Fdbe69cb11e3d694a212611d29fbe842b%3Fd%3Dmm%26s%3D48%26noRedirect%3Dtrue",
      "24x24": "https://avatar-cdn.atlassian.com/dbe69cb11e3d694a212611d29fbe842b?s=24&d=https%3A%2F%2Fsecure.gravatar.com%2Favatar%2Fdbe69cb11e3d694a212611d29fbe842b%3Fd%3Dmm%26s%3D24%26noRedirect%3Dtrue",
      "16x16": "https://avatar-cdn.atlassian.com/dbe69cb11e3d694a212611d29fbe842b?s=16&d=https%3A%2F%2Fsecure.gravatar.com%2Favatar%2Fdbe69cb11e3d694a212611d29fbe842b%3Fd%3Dmm%26s%3D16%26noRedirect%3Dtrue",
      "32x32": "https://avatar-cdn.atlassian.com/dbe69cb11e3d694a212611d29fbe842b?s=32&d=https%3A%2F%2Fsecure.gravatar.com%2Favatar%2Fdbe69cb11e3d694a212611d29fbe842b%3Fd%3Dmm%26s%3D32%26noRedirect%3Dtrue"
    },
    "displayName": "Sotiraki Sima",
    "active": true,
    "timeZone": "Europe/London"
  },
  "status": {
    "self": "https://gdpr-patterns.atlassian.net/rest/api/2/status/10000",
    "description": "",
    "iconUrl": "https://gdpr-patterns.atlassian.net/",
    "name": "To Do",
    "id": "10000",
    "statusCategory": {
      "self": "https://gdpr-patterns.atlassian.net/rest/api/2/statuscategory/2",
      "id": 2,
      "key": "new",
      "colorName": "blue-gray",
      "name": "To Do"
    }
  },
  "subtasks": [],
  "summary": "test",
  "timetracking": {},
  "updated": "2018-05-31T23:05:49.912+0100",
  "versions": [],
  "votes": {
    "self": "https://gdpr-patterns.atlassian.net/rest/api/2/issue/TM-1/votes",
    "votes": 0,
    "hasVoted": false
  },
  "watches": {
    "self": "https://gdpr-patterns.atlassian.net/rest/api/2/issue/TM-1/watchers",
    "watchCount": 1,
    "isWatching": true
  },
  "worklog": {
    "startAt": 0,
    "maxResults": 20,
    "total": 0,
    "worklogs": []
  },
  "workratio": -1
}